…
print(rescue_sf)

## Simple feature collection with 5352 features and 23 fields
## geometry type:  POINT
## dimension:      XY
## bbox:           xmin: -0.5106219 ymin: 51.29753 xmax: 0.3017003 ymax: 51.68849
## epsg (SRID):    4326
## proj4string:    +proj=longlat +datum=WGS84 +no_defs
## # A tibble: 5,352 x 24
##    IncidentNumber DateTimeOfCall      CalYear FinYear TypeOfIncident 
##             <int> <dttm>                <int> <chr>   <chr>          
##  1         139091 2001-01-20 09:03:01    2009 2008/09 Special Service
##  2         275091 2001-01-20 09:08:51    2009 2008/09 Special Service
##  3        2075091 2004-01-20 09:10:07    2009 2008/09 Special Service
##  4        2872091 2005-01-20 09:12:27    2009 2008/09 Special Service
##  5        3553091 2006-01-20 09:15:23    2009 2008/09 Special Service
##  6        3742091 2006-01-20 09:19:30    2009 2008/09 Special Service
##  7        4011091 2007-01-20 09:06:29    2009 2008/09 Special Service
##  8        4211091 2007-01-20 09:11:55    2009 2008/09 Special Service
##  9        4306091 2007-01-20 09:13:48    2009 2008/09 Special Service
## 10        4715091 2007-01-20 09:21:24    2009 2008/09 Special Service
## # ... with 5,342 more rows, and 19 more variables: PumpCount <chr>,
## #   PumpHoursTotal <chr>, IncidentNominalCost <chr>,
## #   FinalDescription <chr>, AnimalGroupParent <chr>, OriginofCall <chr>,
## #   PropertyType <chr>, PropertyCategory <chr>,
## #   SpecialServiceTypeCategory <chr>, SpecialServiceType <chr>,
## #   WardCode <chr>, Ward <chr>, BoroughCode <chr>, Borough <chr>,
## #   StnGroundName <chr>, PostcodeDistrict <chr>, Easting_m <chr>,
## #   Northing_m <chr>, geometry <POINT [Â°]>
…
