…
# extract and tidy
tng_ep_names <- tng_ep_wiki %>%  # website address
  rvest::html_nodes(
    ".wikiepisodetable tr > :nth-child(3)"  # episode name column
  ) %>%
  rvest::html_text() %>%  # extract text
  dplyr::tibble() %>%  # to dataframe
  rename(episode_title = ".") %>%  # sensible column name
  dplyr::filter(episode_title != "Title") %>%  # remove table headers
  dplyr::mutate(episode = row_number())  # episode number (join key)

tng_ep_names

## # A tibble: 176 x 2
##    episode_title                      episode
##    <chr>                                <int>
##  1 "\"Encounter at Farpoint\""              1
##  2 "\"The Naked Now\""                      2
##  3 "\"Code of Honor\""                      3
##  4 "\"The Last Outpost\""                   4
##  5 "\"Where No One Has Gone Before\""       5
##  6 "\"Lonely Among Us\""                    6
##  7 "\"Justice\""                            7
##  8 "\"The Battle\""                         8
##  9 "\"Hide and Q\""                         9
## 10 "\"Haven\""                             10
## # ... with 166 more rows

So now we can join the episode names to the dataframe generated from the scripts. This gives us a table with a row per stardate extracted, with its associated season, episode number and episode name.

stardate_tidy_names <- left_join(
  x = stardate_tidy,
  y = tng_ep_names,
  by = "episode"
) %>% 
  select(season, episode, episode_title, stardate, stardate_decimal)

stardate_tidy_names

## # A tibble: 263 x 5
##    season episode episode_title               stardate stardate_decimal
##    <chr>    <int> <chr>                          <dbl>            <dbl>
##  1 1            1 "\"Encounter at Farpoint\""   42354.               7.
##  2 1            1 "\"Encounter at Farpoint\""   42354.               1.
##  3 1            1 "\"Encounter at Farpoint\""   42354.               2.
##  4 1            1 "\"Encounter at Farpoint\""   42355.               7.
##  5 1            1 "\"Encounter at Farpoint\""   42372.               5.
##  6 1            2 "\"The Naked Now\""           41209.               2.
##  7 1            2 "\"The Naked Now\""           41209.               3.
##  8 1            3 "\"Code of Honor\""           41235.               2.
##  9 1            3 "\"Code of Honor\""           41235.               3.
## 10 1            4 "\"The Last Outpost\""        41294.               5.
## # ... with 253 more rows
…
