…
relay_combos <- shows_clean %>% 
  group_by(Podcast) %>%  # operate within each podcast
  filter(n() > 1) %>%  # where there's more than one
  split(.$Podcast) %>%  # split on podcast
  map(., 2) %>%
  map(~combn(.x, m = 2)) %>%   # all pair combiantions
  map(~t(.x)) %>%  # transpose the matrix
  map(as_tibble) %>%  # convert to a tibble dataframe
  bind_rows(.id = "Podcast") %>%  # list-element name to column
  select(V1, V2, Podcast)

print(relay_combos)

## # A tibble: 58 x 3
##    V1               V2                 Podcast   
##    <chr>            <chr>              <chr>     
##  1 Myke Hurley      Casey Liss         Analog(ue)
##  2 David Sparks     Rose Orchard       Automators
##  3 Myke Hurley      Matt Alexander     Bionic    
##  4 Myke Hurley      Matt Alexander     BONANZA   
##  5 Federico Viticci Fraser Spiers      Canvas    
##  6 Dan Moren        Mikah Sargent      Clockwise 
##  7 Federico Viticci Myke Hurley        Connected 
##  8 Federico Viticci Stephen M. Hackett Connected 
##  9 Myke Hurley      Stephen M. Hackett Connected 
## 10 CGP Grey         Myke Hurley        Cortex    
## # … with 48 more rows
…
