…
alt_get()

The alt_get() function makes use of {xml2} and {rvest} to scrape a web page and isolate attributes from its <img> elements. It returns a tibble via {purrr} where each row is an image.

You can choose to retain all scraped attributes as columns, or it defaults to returning just src and alt (longdesc too if it exists).

The BBC News site is popular and should have good alt text.

bbc_get <- alt_get("https://www.bbc.co.uk/news")
bbc_get

## # A tibble: 104 x 2
##    src                                          alt                        
##    <chr>                                        <chr>                      
##  1 https://a1.api.bbc.co.uk/hit.xiti?&col=1&fr… ""                         
##  2 https://ichef.bbci.co.uk/news/320/cpsprodpb… Trump and Trudeau at Nato …
##  3 data:image/gif;base64,R0lGODlhAQABAIAAAAAAA… Bob Willis                 
##  4 data:image/gif;base64,R0lGODlhAQABAIAAAAAAA… Jo Swinson                 
##  5 data:image/gif;base64,R0lGODlhAQABAIAAAAAAA… Matt Baker                 
##  6 data:image/gif;base64,R0lGODlhAQABAIAAAAAAA… Greta Thunberg and Nikki H…
##  7 data:image/gif;base64,R0lGODlhAQABAIAAAAAAA… Glasgow office buildings   
##  8 data:image/gif;base64,R0lGODlhAQABAIAAAAAAA… Glasgow office buildings   
##  9 data:image/gif;base64,R0lGODlhAQABAIAAAAAAA… Owen Jones                 
## 10 data:image/gif;base64,R0lGODlhAQABAIAAAAAAA… shop                       
## # … with 94 more rows
…
