…
# Load packages
library(dray)  # remotes::install_github("matt-dray/dray")
library(brickr)  # install.packages("brickr")
library(dplyr)  # install.packages("dplyr")

The function is simple. It helps you create a data frame that specifies the location and colour of individual bricks on successive 2D planes to build up a 3D model.

This data frame is a plan that can be interpreted by {brickr} and transformed into a special list that can be rendered in 3D space.

Here’s what happens when you use the function with default arguments.

player_plan <- create_brickr_player()
player_plan  # preview the object

## # A tibble: 45 x 6
##    Level   `1`   `2`   `3`   `4`   `5`
##    <chr> <dbl> <dbl> <dbl> <dbl> <dbl>
##  1 A         0     0     0     0     0
##  2 A         0     2     0     2     0
##  3 A         0     2     0     2     0
##  4 B         0     0     0     0     0
##  5 B         0     7     0     7     0
##  6 B         0     0     0     0     0
##  7 C         0     0     0     0     0
##  8 C         0     1     0     1     0
##  9 C         0     0     0     0     0
## 10 D         0     0     0     0     0
## # … with 35 more rows

Each layer of bricks gets a separate value in the Level column.

The x-dimension is represented by the rows of the data frame and the y-dimension by the numbered columns.

Every non-zero number represents a brick and each value represents a different colour.

For example, layer A has dimensions of 3 x 5 where 4 spots will be filled with a brick. Each of these has the value ‘2’, which encodes the colour black. Layer B, meanwhile, has a couple of bricks with value ‘7’, which is bright red.

How do you know which numbers encode which colours? You can access the codes from the lego_colors data frame in the {brickr} package.

select(lego_colors, brickrID, Color, hex)  # colour codes

## # A tibble: 39 x 3
##    brickrID Color             hex    
##       <int> <chr>             <chr>  
##  1        1 White             #F2F3F2
##  2        2 Black             #1B2A34
##  3        3 Medium stone grey #A3A2A4
##  4        4 Dark stone grey   #635F61
##  5        5 Bright green      #4B974A
##  6        6 Bright blue       #0D69AB
##  7        7 Bright red        #C4281B
##  8        8 Bright yellow     #F5CD2F
##  9        9 Bright orange     #DA8540
## 10       10 Dark orange       #A05F34
## # … with 29 more rows
…
