…
read <- map(urls, read_html) %>%
  set_names(names)

nodes <- map(read, html_nodes, "relative-time")

dates <- map(nodes, html_text)

commits <- enframe(dates) %>%
  unnest(value) %>%
  distinct(name, value) %>%
  mutate(value = mdy(value))

commits

## # A tibble: 96 x 2
##    name                                                    value     
##    <chr>                                                   <date>    
##  1 2018-04-14-r-trek-exploring-stardates-with-r.Rmd        2018-05-12
##  2 2018-04-14-r-trek-exploring-stardates-with-r.Rmd        2018-05-02
##  3 2018-04-14-r-trek-exploring-stardates-with-r.Rmd        2018-04-15
##  4 2018-04-14-r-trek-exploring-stardates-with-r.Rmd        2018-04-14
##  5 2018-04-27-two-dogs-in-toilet-elderly-lady-involved.Rmd 2019-02-22
##  6 2018-04-27-two-dogs-in-toilet-elderly-lady-involved.Rmd 2018-11-04
##  7 2018-04-27-two-dogs-in-toilet-elderly-lady-involved.Rmd 2018-05-12
##  8 2018-04-27-two-dogs-in-toilet-elderly-lady-involved.Rmd 2018-05-08
##  9 2018-04-27-two-dogs-in-toilet-elderly-lady-involved.Rmd 2018-05-02
## 10 2018-04-27-two-dogs-in-toilet-elderly-lady-involved.Rmd 2018-05-01
## # … with 86 more rows
