…
Out of interest we can look at the packages with the most and fewest functions:

most_pkgs <- group_by(tidy_funs, package) %>% count()

arrange(most_pkgs, desc(n))

## # A tibble: 26 x 2
## # Groups:   package [26]
##    package        n
##    <chr>      <int>
##  1 rlang        468
##  2 ggplot2      456
##  3 dplyr        258
##  4 lubridate    212
##  5 purrr        177
##  6 dbplyr       112
##  7 readr        109
##  8 httr          91
##  9 rstudioapi    83
## 10 xml2          66
## # … with 16 more rows

arrange(most_pkgs, n)

## # A tibble: 26 x 2
## # Groups:   package [26]
##    package       n
##    <chr>     <int>
##  1 tidyverse     5
##  2 reprex        6
##  3 hms           7
##  4 broom        10
##  5 readxl       13
##  6 cli          16
##  7 jsonlite     22
##  8 haven        27
##  9 rvest        29
## 10 forcats      32
## # … with 16 more rows
…
