…
So now we have a column with the returned repo information, the extracted default branch name and a URL that points to a potential zzz.R file in that repo.

maybe_zzz

## # A tibble: 6,569 × 6
##    Package         owner          repo   repo_deets  default_branch zzz_url     
##    <chr>           <chr>          <chr>  <list>      <chr>          <chr>       
##  1 AATtools        Spiritspeak    AATto… <gh_rspns … master         https://raw…
##  2 abbyyR          soodoku        abbyyR <gh_rspns … master         https://raw…
##  3 abctools        dennisprangle  abcto… <gh_rspns … master         https://raw…
##  4 abdiv           kylebittinger  abdiv  <gh_rspns … master         https://raw…
##  5 abess           abess-team     abess  <gh_rspns … master         https://raw…
##  6 ABHgenotypeR    StefanReuscher ABHge… <gh_rspns … master         https://raw…
##  7 abstr           a-b-street     abstr  <gh_rspns … master         https://raw…
##  8 academictwitteR cjbarrie       acade… <gh_rspns … master         https://raw…
##  9 accSDA          gumeo          accSDA <gh_rspns … master         https://raw…
## 10 accucor         XiaoyangSu     AccuC… <gh_rspns … master         https://raw…
## # … with 6,559 more rows
…
